<?xml version="1.0" encoding="utf-8"?>
<COLLADA xmlns="http://www.collada.org/2005/11/COLLADASchema" version="1.4.1" xmlns:xsi="http://www.w3.org/2001/XMLSchema-instance">
  <asset>
    <contributor>
      <author>Blender User</author>
      <authoring_tool>Blender 2.80.75 commit date:2019-07-29, commit time:14:47, hash:f6cb5f54494e</authoring_tool>
    </contributor>
    <created>2019-12-27T17:44:47</created>
    <modified>2019-12-27T17:44:47</modified>
    <unit name="meter" meter="1"/>
    <up_axis>Z_UP</up_axis>
  </asset>
  <library_images/>
  <library_geometries>
    <geometry id="Cylinder_001-mesh" name="Cylinder.001">
      <mesh>
        <source id="Cylinder_001-mesh-positions">
          <float_array id="Cylinder_001-mesh-positions-array" count="216">0 1 0 0.1950903 0.9807853 0 0.3826835 0.9238795 0 0.5555703 0.8314696 0 0.7071068 0.7071068 0 0.8314697 0.5555702 0 0.9238795 0.3826834 0 0.9807853 0.1950903 0 1 0 0 0.9807853 -0.1950902 0 0.9238796 -0.3826833 0 0.8314697 -0.5555702 0 0.7071068 -0.7071068 0 0.5555702 -0.8314697 0 0.3826833 -0.9238796 0 0.1950901 -0.9807853 0 -3.25841e-7 -1 0 -0.1950907 -0.9807852 0 -0.3826839 -0.9238793 0 -0.5555707 -0.8314693 0 -0.7071073 -0.7071064 0 -0.83147 -0.5555697 0 -0.9238799 -0.3826827 0 -0.9807854 -0.1950894 0 -1 9.65599e-7 0 -0.9807851 0.1950913 0 -0.9238791 0.3826845 0 -0.8314689 0.5555713 0 -0.7071059 0.7071077 0 -0.5555691 0.8314704 0 -0.3826821 0.9238801 0 -0.1950888 0.9807856 0 0 1 0.2368175 0.1950903 0.9807853 0.1801674 -0.1950888 0.9807856 0.3167705 -0.3826821 0.9238801 0.4169549 0.3826835 0.9238795 0.1489978 0.5555703 0.8314695 0.1445067 0.7071068 0.7071068 0.1668666 0.8314697 0.5555703 0.2152181 0.9238795 0.3826834 0.2877032 0.9807853 0.1950903 0.3815363 1 0 0.4931114 0.5555702 -0.8314697 0.1445066 0.3826833 -0.9238796 0.1489979 0.1950901 -0.9807854 0.1801675 -3.25841e-7 -1 0.2368177 -0.1950907 -0.9807852 0.3167715 -0.3826839 -0.9238793 0.4169562 0.9803242 1.19209e-7 0.5 0.9807853 -0.1950902 0.3815363 0.9238796 -0.3826833 0.2877032 0.8314697 -0.5555702 0.215218 0.7071068 -0.7071068 0.1668665 -0.4978589 0.862317 0.4946106 -0.4901623 0.8489858 0.5 -0.5555691 0.8314704 0.4542015 -0.7071059 0.7071077 0.3480944 -0.8314689 0.5555713 0.2610144 -0.9238791 0.3826845 0.196308 -0.980785 0.1950913 0.1564619 -1 9.65599e-7 0.1430075 -0.4901621 -0.8489859 0.5 -0.4978588 -0.862317 0.4946107 -0.5555707 -0.8314693 0.4542003 -0.83147 -0.5555697 0.2610135 -0.7071073 -0.7071064 0.3480932 -0.9807854 -0.1950894 0.1564616 -0.9238799 -0.3826827 0.1963073 0.245081 -0.4244928 0.5 -0.4901621 0 0.5 0.2450809 0.424493 0.5</float_array>
          <technique_common>
            <accessor source="#Cylinder_001-mesh-positions-array" count="72" stride="3">
              <param name="X" type="float"/>
              <param name="Y" type="float"/>
              <param name="Z" type="float"/>
            </accessor>
          </technique_common>
        </source>
        <source id="Cylinder_001-mesh-normals">
          <float_array id="Cylinder_001-mesh-normals-array" count="312">0.09801727 0.9951847 0 0.2902846 0.9569404 0 0.4713968 0.8819213 1.05203e-6 0.6343934 0.7730104 0 0.7730106 0.6343932 0 0.8819214 0.4713968 0 0.9569404 0.2902848 0 0.9951848 0.09801739 0 0.9951848 -0.09801739 0 0.9569404 -0.2902848 0 0.8819214 -0.4713966 0 0.7730105 -0.6343933 0 0.6343934 -0.7730105 0 0.4713966 -0.8819214 0 0.2902842 -0.9569405 0 0.09801691 -0.9951848 0 -0.09801751 -0.9951847 0 -0.2902852 -0.9569403 0 -0.4713971 -0.8819212 0 -0.6343936 -0.7730102 0 -0.7730112 -0.6343924 0 -0.8819217 -0.4713962 0 -0.9569407 -0.2902835 3.34872e-7 -0.9951848 -0.09801656 0 -0.9951848 0.09801763 0 -0.95694 0.2902858 3.64368e-7 -0.8819209 0.4713977 0 -0.7730094 0.6343947 0 -0.6343926 0.7730111 0 -0.4713955 0.881922 -1.43849e-6 -0.2902831 0.9569408 0 -0.0980165 0.9951848 0 0 0 -1 0.2867883 -0.4967321 0.8191519 -0.5735766 0 0.8191519 0.2867883 0.4967319 0.8191519 0 0 1 0.09801727 0.9951848 0 0.471397 0.8819212 0 0.6343932 0.7730106 0 0.77301 0.6343939 0 0.8819216 0.4713962 0 0.9569405 0.2902845 0 0.9951847 0.09801769 0 0.9951848 -0.09801667 0 0.9569404 -0.2902847 0 0.8819213 -0.4713967 0 0.6343936 -0.7730103 0 0.4713968 -0.8819212 0 0.2902845 -0.9569405 0 0.09801661 -0.9951848 0 -0.09801751 -0.9951847 0 -0.4713972 -0.881921 -1.43847e-6 -0.6343937 -0.7730102 0 -0.7730109 -0.6343929 0 -0.8819217 -0.4713962 0 -0.9569408 -0.2902833 0 -0.9951848 -0.09801679 3.87142e-7 -0.9951846 0.09801894 3.78691e-7 -0.95694 0.2902858 0 -0.8819209 0.4713975 0 -0.7730096 0.6343944 0 -0.6343923 0.7730112 0 -0.4713956 0.881922 0 -0.4713955 0.881922 0 -0.2902833 0.9569408 0 -0.09801632 0.9951848 0 0.2867866 -0.4967339 0.8191513 0.2867884 -0.4967316 0.819152 0.2867884 -0.496732 0.8191518 0.2867893 -0.4967319 0.8191516 0.2867885 -0.4967318 0.8191519 0.2867879 -0.4967318 0.8191521 0.2867887 -0.4967319 0.8191518 0.2867883 -0.4967319 0.819152 0.2867886 -0.4967318 0.8191519 0.2867884 -0.4967321 0.8191518 0.2867885 -0.4967317 0.819152 0.2867884 -0.4967318 0.819152 -0.5735766 0 0.8191519 -0.5735765 3.03107e-6 0.819152 -0.5735784 3.34118e-6 0.8191507 -0.5735768 0 0.8191519 -0.5735765 0 0.819152 -0.5735769 -4.73391e-7 0.8191519 -0.5735768 0 0.8191519 -0.5735767 -4.90881e-7 0.8191519 -0.5735769 2.36696e-7 0.8191519 -0.5735767 2.21234e-7 0.8191519 -0.5735768 0 0.8191519 -0.5735782 -3.34114e-6 0.8191509 -0.5735752 6.06195e-6 0.819153 0.2867867 0.4967312 0.819153 0.2867884 0.4967319 0.819152 0.2867901 0.4967312 0.8191518 0.2867885 0.4967325 0.8191515 0.2867884 0.4967318 0.8191519 0.2867883 0.4967318 0.819152 0.2867886 0.4967319 0.8191518 0.2867884 0.4967321 0.8191518 0.2867882 0.4967321 0.8191519 0.2867881 0.496732 0.819152 0.2867884 0.4967318 0.8191521 0.2867882 0.4967319 0.819152</float_array>
          <technique_common>
            <accessor source="#Cylinder_001-mesh-normals-array" count="104" stride="3">
              <param name="X" type="float"/>
              <param name="Y" type="float"/>
              <param name="Z" type="float"/>
            </accessor>
          </technique_common>
        </source>
        <source id="Cylinder_001-mesh-map-0">
          <float_array id="Cylinder_001-mesh-map-0-array" count="840">0.8340004 0.3399664 0.7735332 0.2944693 0.8340004 0.2944693 0.8340004 0.2944693 0.7839942 0.2461699 0.8340004 0.2461698 0.8340004 0.2461698 0.7855015 0.1969242 0.8340003 0.1969242 0.7855015 0.1969242 0.8340003 0.1486247 0.8340003 0.1969242 0.7779971 0.1486247 0.8340002 0.1031277 0.8340003 0.1486247 0.7617695 0.1031277 0.8340002 0.06218135 0.8340002 0.1031277 0.7374423 0.06218135 0.8340002 0.02735942 0.8340002 0.06218135 0.7059504 0.02735942 0.8340002 0 0.8340002 0.02735942 0.9994968 0.3535535 0.8714469 0.3187316 0.9994968 0.3187316 0.9994968 0.3187316 0.9029389 0.2777853 0.9994968 0.2777853 0.9994968 0.2777853 0.9272661 0.2322881 0.9994968 0.2322881 0.9994968 0.2322881 0.9434936 0.1839886 0.9994968 0.1839886 0.9994968 0.1839886 0.950998 0.1347429 0.9994968 0.1347429 0.950998 0.1347429 0.9994968 0.08644342 0.9994968 0.1347429 0.9494906 0.08644342 0.9994968 0.0409463 0.9994968 0.08644342 0.9390296 0.0409463 0.9994968 0 0.9994968 0.0409463 0.92052 0.6313387 1 0.5858416 1 0.6313387 0.8936862 0.5858416 1 0.5375422 1 0.5858416 0.8600625 0.5375422 0.8475629 0.4882964 1 0.4882964 1 0.4882964 0.8831741 0.439997 1 0.439997 1 0.439997 0.9123995 0.3944998 1 0.3944998 1 0.3944998 0.934116 0.3535535 1 0.3535535 0.8204385 0.7557012 0.7679274 0.7102041 0.8204385 0.7102041 0.8204385 0.7102041 0.7724428 0.6619046 0.8204385 0.6619046 0.7724428 0.6619046 0.8204385 0.6126589 0.8204385 0.6619046 0.7679273 0.6126589 0.8204385 0.5643594 0.8204385 0.6126589 0.7545543 0.5643594 0.8204385 0.5188623 0.8204385 0.5643594 0.7328377 0.5188623 0.8204385 0.477916 0.8204385 0.5188623 0.7036123 0.477916 0.8204385 0.443094 0.8204385 0.477916 0.6815629 0.443094 0.6680009 0.4339613 0.6940635 0.4157344 0.8340004 0.4157344 0.727687 0.3809124 0.8340004 0.3809124 0.8340004 0.3809124 0.7545205 0.3399664 0.8340004 0.3399664 0.07456564 0.909366 0.1210873 0.5558125 0.5934355 0.5906342 0.121088 0.05581206 0.1757924 0.02845269 0.1737914 0.2220392 0.1090893 0.4297412 0.381754 0.3678314 0.1757918 0.4715471 0.3011048 0 0.3668972 0 0.4464561 0.1601294 0.1737914 0.2220392 0.381754 0.3678314 0.1090893 0.4297412 0.6544187 0.3059217 0.381754 0.3678314 0.4464561 0.1601294 0.2384935 0.01433718 0.4464561 0.1601294 0.1737914 0.2220392 0.381754 0.3678314 0.1737914 0.2220392 0.4464561 0.1601294 0.8340004 0.3399664 0.7545205 0.3399664 0.7735332 0.2944693 0.8340004 0.2944693 0.7735332 0.2944693 0.7839942 0.2461699 0.8340004 0.2461698 0.7839942 0.2461699 0.7855015 0.1969242 0.7855015 0.1969242 0.7779971 0.1486247 0.8340003 0.1486247 0.7779971 0.1486247 0.7617695 0.1031277 0.8340002 0.1031277 0.7617695 0.1031277 0.7374423 0.06218135 0.8340002 0.06218135 0.7374423 0.06218135 0.7059504 0.02735942 0.8340002 0.02735942 0.7059504 0.02735942 0.6685039 0 0.8340002 0 0.9994968 0.3535535 0.8340004 0.3535535 0.8714469 0.3187316 0.9994968 0.3187316 0.8714469 0.3187316 0.9029389 0.2777853 0.9994968 0.2777853 0.9029389 0.2777853 0.9272661 0.2322881 0.9994968 0.2322881 0.9272661 0.2322881 0.9434936 0.1839886 0.9994968 0.1839886 0.9434936 0.1839886 0.950998 0.1347429 0.950998 0.1347429 0.9494906 0.08644342 0.9994968 0.08644342 0.9494906 0.08644342 0.9390296 0.0409463 0.9994968 0.0409463 0.9395328 0.672285 0.92052 0.6313387 1 0.6313387 0.92052 0.6313387 0.8936862 0.5858416 1 0.5858416 0.8936862 0.5858416 0.8600625 0.5375422 1 0.5375422 1 0.4882964 1 0.5375422 0.8600625 0.5375422 0.8600625 0.5375422 0.8340004 0.5047353 0.8475629 0.4882964 1 0.4882964 0.8475629 0.4882964 0.8831741 0.439997 1 0.439997 0.8831741 0.439997 0.9123995 0.3944998 1 0.3944998 0.9123995 0.3944998 0.934116 0.3535535 0.8204385 0.7557012 0.7545545 0.7557012 0.7679274 0.7102041 0.8204385 0.7102041 0.7679274 0.7102041 0.7724428 0.6619046 0.7724428 0.6619046 0.7679273 0.6126589 0.8204385 0.6126589 0.7679273 0.6126589 0.7545543 0.5643594 0.8204385 0.5643594 0.7545543 0.5643594 0.7328377 0.5188623 0.8204385 0.5188623 0.7328377 0.5188623 0.7036123 0.477916 0.8204385 0.477916 0.7036123 0.477916 0.6680009 0.443094 0.8204385 0.443094 0.8340004 0.4157344 0.8340004 0.4430939 0.6940635 0.4157344 0.8340004 0.4430939 0.6815629 0.443094 0.6940635 0.4157344 0.8340004 0.4157344 0.6940635 0.4157344 0.727687 0.3809124 0.8340004 0.3809124 0.727687 0.3809124 0.7545205 0.3399664 0.5469133 0.9441877 0.4922094 0.971547 0.4314252 0.9903925 0.4314252 0.9903925 0.3668971 0.9999999 0.3011047 1 0.3011047 1 0.2365766 0.9903927 0.1757922 0.9715473 0.1757922 0.9715473 0.1210879 0.9441878 0.3011047 1 0.1210879 0.9441878 0.07456564 0.909366 0.3011047 1 0.07456564 0.909366 0.03801327 0.8684197 0.01283562 0.8229226 0.01283562 0.8229226 0 0.7746232 0.07456564 0.909366 0 0.7746232 0 0.7253775 0.07456564 0.909366 0 0.7253775 0.01283532 0.677078 0.1210873 0.5558125 0.01283532 0.677078 0.03801286 0.6315808 0.1210873 0.5558125 0.03801286 0.6315808 0.07456517 0.5906345 0.1210873 0.5558125 0.1210873 0.5558125 0.1757916 0.528453 0.2365759 0.5096074 0.2365759 0.5096074 0.3011041 0.5000001 0.3668964 0.5 0.3668964 0.5 0.4314246 0.5096073 0.4922088 0.5284528 0.4922088 0.5284528 0.5469133 0.5558122 0.5934355 0.5906342 0.5934355 0.5906342 0.6299878 0.6315805 0.6551655 0.6770776 0.6551655 0.6770776 0.6680009 0.7253771 0.6680009 0.7746228 0.6680009 0.7746228 0.6551655 0.8229222 0.5469133 0.9441877 0.6551655 0.8229222 0.6299878 0.8684194 0.5469133 0.9441877 0.6299878 0.8684194 0.5934355 0.9093657 0.5469133 0.9441877 0.5469133 0.9441877 0.4314252 0.9903925 0.3011047 1 0.1210873 0.5558125 0.2365759 0.5096074 0.5934355 0.5906342 0.2365759 0.5096074 0.3668964 0.5 0.5934355 0.5906342 0.3668964 0.5 0.4922088 0.5284528 0.5934355 0.5906342 0.5934355 0.5906342 0.6551655 0.6770776 0.5469133 0.9441877 0.6551655 0.6770776 0.6680009 0.7746228 0.5469133 0.9441877 0.5469133 0.9441877 0.3011047 1 0.07456564 0.909366 0.07456564 0.909366 0 0.7253775 0.1210873 0.5558125 0.5469133 0.9441877 0.07456564 0.909366 0.5934355 0.5906342 0.2365766 0.009607255 0.2384935 0.01433718 0.1757924 0.02845269 0.2384935 0.01433718 0.1737914 0.2220392 0.1757924 0.02845269 0.1737914 0.2220392 0.1090893 0.4297412 0.07456517 0.4093655 0.1090893 0.4297412 0.1055576 0.4325635 0.07456517 0.4093655 0.07456517 0.4093655 0.03801298 0.3684192 0.1737914 0.2220392 0.03801298 0.3684192 0.01283538 0.3229221 0.1737914 0.2220392 0.01283538 0.3229221 0 0.2746226 0.1737914 0.2220392 0 0.2746226 0 0.2253768 0.1737914 0.2220392 0 0.2253768 0.01283562 0.1770774 0.1737914 0.2220392 0.01283562 0.1770774 0.03801333 0.1315803 0.1737914 0.2220392 0.03801333 0.1315803 0.0745657 0.09063398 0.1737914 0.2220392 0.0745657 0.09063398 0.121088 0.05581206 0.1737914 0.2220392 0.381754 0.3678314 0.6544187 0.3059217 0.6299878 0.3684194 0.6544187 0.3059217 0.65945 0.3067998 0.6551655 0.3229223 0.6299878 0.3684194 0.6544187 0.3059217 0.6551655 0.3229223 0.6299878 0.3684194 0.5934356 0.4093658 0.381754 0.3678314 0.5934356 0.4093658 0.5469133 0.4441877 0.381754 0.3678314 0.5469133 0.4441877 0.492209 0.4715471 0.381754 0.3678314 0.492209 0.4715471 0.4314247 0.4903927 0.381754 0.3678314 0.4314247 0.4903927 0.3668965 0.5 0.381754 0.3678314 0.3668965 0.5 0.3011041 0.5 0.381754 0.3678314 0.3011041 0.5 0.2365759 0.4903926 0.381754 0.3678314 0.2365759 0.4903926 0.1757918 0.4715471 0.381754 0.3678314 0.1757918 0.4715471 0.1210874 0.4441876 0.1090893 0.4297412 0.1210874 0.4441876 0.1055576 0.4325635 0.1090893 0.4297412 0.668001 0.2746229 0.65945 0.3067998 0.6544187 0.3059217 0.4464561 0.1601294 0.2384935 0.01433718 0.3011048 0 0.2384935 0.01433718 0.2365766 0.009607255 0.3011048 0 0.668001 0.2746229 0.6544187 0.3059217 0.4464561 0.1601294 0.6551657 0.177078 0.668001 0.2253771 0.4464561 0.1601294 0.668001 0.2253771 0.668001 0.2746229 0.4464561 0.1601294 0.593436 0.09063458 0.6299881 0.1315809 0.4464561 0.1601294 0.6299881 0.1315809 0.6551657 0.177078 0.4464561 0.1601294 0.4922094 0.02845305 0.5469138 0.05581253 0.4464561 0.1601294 0.5469138 0.05581253 0.593436 0.09063458 0.4464561 0.1601294 0.3668972 0 0.4314253 0.009607434 0.4464561 0.1601294 0.4314253 0.009607434 0.4922094 0.02845305 0.4464561 0.1601294</float_array>
          <technique_common>
            <accessor source="#Cylinder_001-mesh-map-0-array" count="420" stride="2">
              <param name="S" type="float"/>
              <param name="T" type="float"/>
            </accessor>
          </technique_common>
        </source>
        <vertices id="Cylinder_001-mesh-vertices">
          <input semantic="POSITION" source="#Cylinder_001-mesh-positions"/>
        </vertices>
        <triangles count="140">
          <input semantic="VERTEX" source="#Cylinder_001-mesh-vertices" offset="0"/>
          <input semantic="NORMAL" source="#Cylinder_001-mesh-normals" offset="1"/>
          <input semantic="TEXCOORD" source="#Cylinder_001-mesh-map-0" offset="2" set="0"/>
          <p>0 0 0 33 0 1 1 0 2 1 1 3 36 1 4 2 1 5 2 2 6 37 2 7 3 2 8 37 3 9 4 3 10 3 3 11 38 4 12 5 4 13 4 4 14 39 5 15 6 5 16 5 5 17 40 6 18 7 6 19 6 6 20 41 7 21 8 7 22 7 7 23 8 8 24 50 8 25 9 8 26 9 9 27 51 9 28 10 9 29 10 10 30 52 10 31 11 10 32 11 11 33 53 11 34 12 11 35 12 12 36 43 12 37 13 12 38 43 13 39 14 13 40 13 13 41 44 14 42 15 14 43 14 14 44 45 15 45 16 15 46 15 15 47 46 16 48 17 16 49 16 16 50 47 17 51 18 17 52 17 17 53 48 18 54 64 18 55 19 18 56 19 19 57 66 19 58 20 19 59 20 20 60 65 20 61 21 20 62 21 21 63 68 21 64 22 21 65 22 22 66 67 22 67 23 22 68 23 23 69 61 23 70 24 23 71 61 24 72 25 24 73 24 24 74 60 25 75 26 25 76 25 25 77 59 26 78 27 26 79 26 26 80 58 27 81 28 27 82 27 27 83 57 28 84 29 28 85 28 28 86 56 29 87 54 29 88 35 29 89 30 30 90 34 30 91 31 30 92 31 31 93 32 31 94 0 31 95 7 32 96 15 32 97 23 32 98 51 33 99 50 33 100 69 33 101 62 34 102 70 34 103 66 34 104 41 35 105 40 35 106 71 35 107 69 36 108 70 36 109 62 36 110 55 36 111 70 36 112 71 36 113 49 36 114 71 36 115 69 36 116 70 36 117 69 36 118 71 36 119 0 37 120 32 37 121 33 37 122 1 1 123 33 1 124 36 1 125 2 38 126 36 38 127 37 38 128 37 39 129 38 39 130 4 39 131 38 40 132 39 40 133 5 40 134 39 41 135 40 41 136 6 41 137 40 42 138 41 42 139 7 42 140 41 43 141 42 43 142 8 43 143 8 44 144 42 44 145 50 44 146 9 45 147 50 45 148 51 45 149 10 46 150 51 46 151 52 46 152 11 11 153 52 11 154 53 11 155 12 47 156 53 47 157 43 47 158 43 48 159 44 48 160 14 48 161 44 49 162 45 49 163 15 49 164 45 50 165 46 50 166 16 50 167 46 51 168 47 51 169 17 51 170 47 17 171 48 17 172 18 17 173 19 18 174 18 18 175 48 18 176 48 52 177 63 52 178 64 52 179 19 53 180 64 53 181 66 53 182 20 54 183 66 54 184 65 54 185 21 55 186 65 55 187 68 55 188 22 56 189 68 56 190 67 56 191 23 57 192 67 57 193 61 57 194 61 58 195 60 58 196 25 58 197 60 59 198 59 59 199 26 59 200 59 60 201 58 60 202 27 60 203 58 61 204 57 61 205 28 61 206 57 62 207 56 62 208 29 62 209 30 63 210 29 63 211 35 63 212 29 64 213 56 64 214 35 64 215 30 65 216 35 65 217 34 65 218 31 66 219 34 66 220 32 66 221 31 32 222 0 32 223 1 32 224 1 32 225 2 32 226 3 32 227 3 32 228 4 32 229 5 32 230 5 32 231 6 32 232 3 32 233 6 32 234 7 32 235 3 32 236 7 32 237 8 32 238 9 32 239 9 32 240 10 32 241 7 32 242 10 32 243 11 32 244 7 32 245 11 32 246 12 32 247 15 32 248 12 32 249 13 32 250 15 32 251 13 32 252 14 32 253 15 32 254 15 32 255 16 32 256 17 32 257 17 32 258 18 32 259 19 32 260 19 32 261 20 32 262 21 32 263 21 32 264 22 32 265 23 32 266 23 32 267 24 32 268 25 32 269 25 32 270 26 32 271 27 32 272 27 32 273 28 32 274 31 32 275 28 32 276 29 32 277 31 32 278 29 32 279 30 32 280 31 32 281 31 32 282 1 32 283 3 32 284 15 32 285 17 32 286 23 32 287 17 32 288 19 32 289 23 32 290 19 32 291 21 32 292 23 32 293 23 32 294 25 32 295 31 32 296 25 32 297 27 32 298 31 32 299 31 32 300 3 32 301 7 32 302 7 32 303 11 32 304 15 32 305 31 32 306 7 32 307 23 32 308 42 67 309 49 67 310 50 67 311 49 68 312 69 68 313 50 68 314 69 69 315 62 69 316 48 69 317 62 70 318 63 70 319 48 70 320 48 71 321 47 71 322 69 71 323 47 72 324 46 72 325 69 72 326 46 73 327 45 73 328 69 73 329 45 74 330 44 74 331 69 74 332 44 75 333 43 75 334 69 75 335 43 76 336 53 76 337 69 76 338 53 77 339 52 77 340 69 77 341 52 78 342 51 78 343 69 78 344 70 79 345 55 79 346 57 79 347 55 80 348 54 80 349 56 80 350 57 81 351 55 81 352 56 81 353 57 82 354 58 82 355 70 82 356 58 83 357 59 83 358 70 83 359 59 84 360 60 84 361 70 84 362 60 85 363 61 85 364 70 85 365 61 86 366 67 86 367 70 86 368 67 87 369 68 87 370 70 87 371 68 88 372 65 88 373 70 88 374 65 89 375 66 89 376 70 89 377 66 90 378 64 90 379 62 90 380 64 91 381 63 91 382 62 91 383 35 92 384 54 92 385 55 92 386 71 93 387 49 93 388 41 93 389 49 94 390 42 94 391 41 94 392 35 95 393 55 95 394 71 95 395 32 96 396 34 96 397 71 96 398 34 97 399 35 97 400 71 97 401 36 98 402 33 98 403 71 98 404 33 99 405 32 99 406 71 99 407 38 100 408 37 100 409 71 100 410 37 101 411 36 101 412 71 101 413 40 102 414 39 102 415 71 102 416 39 103 417 38 103 418 71 103 419</p>
        </triangles>
      </mesh>
    </geometry>
  </library_geometries>
  <library_visual_scenes>
    <visual_scene id="Scene" name="Scene">
      <node id="slot" name="slot" type="NODE">
        <matrix sid="transform">1 0 0 0 0 1 0 0 0 0 1 0 0 0 0 1</matrix>
        <instance_geometry url="#Cylinder_001-mesh" name="slot"/>
      </node>
    </visual_scene>
  </library_visual_scenes>
  <scene>
    <instance_visual_scene url="#Scene"/>
  </scene>
</COLLADA>