<?xml version="1.0" encoding="utf-8"?>
<COLLADA xmlns="http://www.collada.org/2005/11/COLLADASchema" version="1.4.1" xmlns:xsi="http://www.w3.org/2001/XMLSchema-instance">
  <asset>
    <contributor>
      <author>Blender User</author>
      <authoring_tool>Blender 2.80.75 commit date:2019-07-29, commit time:14:47, hash:f6cb5f54494e</authoring_tool>
    </contributor>
    <created>2020-01-03T18:10:35</created>
    <modified>2020-01-03T18:10:35</modified>
    <unit name="meter" meter="1"/>
    <up_axis>Z_UP</up_axis>
  </asset>
  <library_images/>
  <library_geometries>
    <geometry id="Text_001-mesh" name="Text.001">
      <mesh>
        <source id="Text_001-mesh-positions">
          <float_array id="Text_001-mesh-positions-array" count="180">2.25 0.7500001 0.5 2.25 0.729 0.5 2.5 0.729 0.5 2.5 0 0.5 2.75 0 0.5 2.75 0.729 0.5 3 0.729 0.5 3 0.7500001 0.5 1.75 0 0.4999848 2 0 0.5 2 0.7500001 0.4999848 1.75 0.7500001 0.5 1.479 0.7500001 0.5 1.479 0.5 0.5 0.7500001 0.5 0.5 0.7500001 0 0.5 1.5 0 0.4999848 1.5 0.7500001 0.4999848 0 0.7500001 0.4999848 0 0 0.4999848 0.5 0 0.5 0.5 0.01999998 0.4999848 0.25 0.01999998 0.5 0.25 0.25 0.5 0.5 0.25 0.5 0.5 0.27 0.4999848 0.25 0.27 0.5 0.25 0.729 0.5 0.5 0.729 0.5 0.5 0.7500001 0.4999848 2.25 0.7500001 0 2.25 0.729 0 2.5 0.729 0 2.5 0 0 2.75 0 0 2.75 0.729 0 3 0.729 0 3 0.7500001 0 1.75 0 0 2 0 0 2 0.7500001 0 1.75 0.7500001 0 1.479 0.7500001 0 1.479 0.5 0 0.7500001 0.5 0 0.7500001 0 0 1.5 0 0 1.5 0.7500001 0 0 0.7500001 0 0 0 0 0.5 0 0 0.5 0.01999998 0 0.25 0.01999998 0 0.25 0.25 0 0.5 0.25 0 0.5 0.27 0 0.25 0.27 0 0.25 0.729 0 0.5 0.729 0 0.5 0.7500001 0</float_array>
          <technique_common>
            <accessor source="#Text_001-mesh-positions-array" count="60" stride="3">
              <param name="X" type="float"/>
              <param name="Y" type="float"/>
              <param name="Z" type="float"/>
            </accessor>
          </technique_common>
        </source>
        <source id="Text_001-mesh-normals">
          <float_array id="Text_001-mesh-normals-array" count="60">0 0 1 6.10351e-5 -2.03451e-5 1 -6.10351e-5 2.03451e-5 1 7.26607e-4 0 0.9999998 7.26608e-4 0 0.9999998 2.03451e-5 -2.96631e-5 1 -6.09159e-5 0 1 0 7.26608e-4 0.9999998 -6.12928e-5 0 1 -5.96046e-5 0 1 6.10946e-5 0 1 0 7.6294e-4 0.9999998 -6.11595e-5 0 1 6.10947e-5 -0.001525819 0.9999989 -3.05474e-5 7.62939e-4 0.9999997 0 0 -1 -1 0 0 0 1 0 1 0 0 0 -1 0</float_array>
          <technique_common>
            <accessor source="#Text_001-mesh-normals-array" count="20" stride="3">
              <param name="X" type="float"/>
              <param name="Y" type="float"/>
              <param name="Z" type="float"/>
            </accessor>
          </technique_common>
        </source>
        <source id="Text_001-mesh-map-0">
          <float_array id="Text_001-mesh-map-0-array" count="624">0.75 1 1 1 0.75 1 0.75 1 1 1 1 1 0.8333333 1 1 1 0.75 1 0.8333333 1 0.9166666 1 0.8333333 1 0.9166666 1 1 1 0.8333333 1 0.8333333 1 0.9166666 1 0.9166666 1 0.5833333 0.99997 0.6666666 0.9999694 0.5833333 1 0.5833333 0.99997 0.6666666 1 0.6666666 0.9999694 0.493 1 0.5000001 0.9999694 0.493 1 0.493 1 0.5000001 0.99997 0.5000001 0.9999694 0.25 1 0.493 1 0.25 1 0.25 1 0.5000001 0.99997 0.493 1 0 0.99997 0.08333331 1 0 0.9999694 0.08333331 1 0.1666666 0.9999694 0 0.9999694 0.08333331 1 0.1666666 1 0.1666666 0.9999694 0 0.99997 0.08333331 1 0.08333331 1 0 0.99997 0.08333331 1 0.08333331 1 0.08333331 1 0.1666666 0.9999694 0.08333331 1 0.08333331 1 0.1666666 1 0.1666666 0.9999694 0 0.99997 0.08333331 1 0.08333331 1 0 0.99997 0.1666666 0.99997 0.08333331 1 0 0.99997 0.1666666 1 0.1666666 0.99997 0.75 0 0.75 0 1 0 0.75 0 1 0 1 0 0.8333333 0 0.75 0 1 0 0.8333333 0 0.8333333 0 0.9166666 0 0.9166666 0 0.8333333 0 1 0 0.8333333 0 0.9166666 0 0.9166666 0 0.5833333 0 0.5833333 0 0.6666666 0 0.5833333 0 0.6666666 0 0.6666666 0 0.493 0 0.493 0 0.5000001 0 0.493 0 0.5000001 0 0.5000001 0 0.25 0 0.25 0 0.493 0 0.25 0 0.493 0 0.5000001 0 0 0 0 0 0.08333331 0 0.08333331 0 0 0 0.1666666 0 0.08333331 0 0.1666666 0 0.1666666 0 0 0 0.08333331 0 0.08333331 0 0 0 0.08333331 0 0.08333331 0 0.08333331 0 0.08333331 0 0.1666666 0 0.08333331 0 0.1666666 0 0.1666666 0 0 0 0.08333331 0 0.08333331 0 0 0 0.08333331 0 0.1666666 0 0 0 0.1666666 0 0.1666666 0 0.75 1 0.75 0 0.75 1 1 1 0.75 0 0.75 1 1 1 1 0 1 1 0.75 1 0.8333333 0 0.8333333 1 0.8333333 1 0.8333333 0 0.8333333 1 0.9166666 1 1 0 1 1 0.8333333 1 0.9166666 0 0.9166666 1 0.9166666 1 0.9166666 0 0.9166666 1 0.5833333 0.99997 0.5833333 0 0.5833333 0 0.6666666 0.9999694 0.5833333 0 0.5833333 1 0.5833333 0.99997 0.6666666 0 0.6666666 1 0.6666666 0.9999694 0.6666666 0 0.6666666 0 0.493 1 0.493 0 0.493 1 0.5000001 0.9999694 0.493 0 0.493 1 0.5000001 0.99997 0.5000001 0 0.5000001 0.9999694 0.25 1 0.25 0 0.25 1 0.493 1 0.25 0 0.25 1 0.5000001 0.99997 0.25 0 0.5000001 0 0 0.9999694 0 0 0 0.99997 0.1666666 0.9999694 0 0 0 0.9999694 0.08333331 1 0.1666666 0 0.1666666 1 0.1666666 0.9999694 0.1666666 0 0.1666666 0 0.08333331 1 0.08333331 0 0.08333331 1 0.1666666 0.9999694 0.08333331 0 0.08333331 1 0.08333331 1 0.1666666 0 0.1666666 1 0.1666666 0.9999694 0.1666666 0 0.1666666 0 0.08333331 1 0.08333331 0 0.08333331 1 0.1666666 0.99997 0.08333331 0 0.08333331 1 0 0.99997 0.1666666 0 0.1666666 1 0.1666666 0.99997 0.1666666 0 0.1666666 0 0.75 1 0.75 0 0.75 0 1 1 1 0 0.75 0 1 1 1 0 1 0 0.75 1 0.75 0 0.8333333 0 0.8333333 1 0.8333333 0 0.8333333 0 0.9166666 1 0.9166666 0 1 0 0.8333333 1 0.8333333 0 0.9166666 0 0.9166666 1 0.9166666 0 0.9166666 0 0.5833333 0.99997 0.5833333 1 0.5833333 0 0.6666666 0.9999694 0.6666666 0 0.5833333 0 0.5833333 0.99997 0.5833333 0 0.6666666 0 0.6666666 0.9999694 0.6666666 1 0.6666666 0 0.493 1 0.493 0 0.493 0 0.5000001 0.9999694 0.5000001 0 0.493 0 0.5000001 0.99997 0.5000001 0 0.5000001 0 0.25 1 0.25 0 0.25 0 0.493 1 0.493 0 0.25 0 0.5000001 0.99997 0.25 1 0.25 0 0 0.9999694 0 0 0 0 0.1666666 0.9999694 0.1666666 0 0 0 0.08333331 1 0.08333331 0 0.1666666 0 0.1666666 0.9999694 0.1666666 1 0.1666666 0 0.08333331 1 0.08333331 0 0.08333331 0 0.1666666 0.9999694 0.1666666 0 0.08333331 0 0.08333331 1 0.08333331 0 0.1666666 0 0.1666666 0.9999694 0.1666666 1 0.1666666 0 0.08333331 1 0.08333331 0 0.08333331 0 0.1666666 0.99997 0.1666666 0 0.08333331 0 0 0.99997 0 0 0.1666666 0 0.1666666 0.99997 0.1666666 1 0.1666666 0</float_array>
          <technique_common>
            <accessor source="#Text_001-mesh-map-0-array" count="312" stride="2">
              <param name="S" type="float"/>
              <param name="T" type="float"/>
            </accessor>
          </technique_common>
        </source>
        <vertices id="Text_001-mesh-vertices">
          <input semantic="POSITION" source="#Text_001-mesh-positions"/>
        </vertices>
        <triangles count="104">
          <input semantic="VERTEX" source="#Text_001-mesh-vertices" offset="0"/>
          <input semantic="NORMAL" source="#Text_001-mesh-normals" offset="1"/>
          <input semantic="TEXCOORD" source="#Text_001-mesh-map-0" offset="2" set="0"/>
          <p>1 0 0 7 0 1 0 0 2 1 0 3 6 0 4 7 0 5 2 0 6 6 0 7 1 0 8 3 0 9 5 0 10 2 0 11 5 0 12 6 0 13 2 0 14 3 0 15 4 0 16 5 0 17 8 1 18 10 1 19 11 1 20 8 2 21 9 2 22 10 2 23 13 3 24 17 3 25 12 3 26 13 4 27 16 4 28 17 4 29 15 0 30 13 0 31 14 0 32 15 5 33 16 5 34 13 5 35 19 6 36 27 6 37 18 6 38 27 7 39 29 7 40 18 7 41 27 7 42 28 7 43 29 7 44 19 8 45 26 8 46 27 8 47 19 9 48 23 9 49 26 9 50 23 10 51 25 10 52 26 10 53 23 11 54 24 11 55 25 11 56 19 12 57 22 12 58 23 12 59 19 13 60 21 13 61 22 13 62 19 14 63 20 14 64 21 14 65 31 15 66 30 15 67 37 15 68 31 15 69 37 15 70 36 15 71 32 0 72 31 0 73 36 0 74 33 15 75 32 15 76 35 15 77 35 0 78 32 0 79 36 0 80 33 15 81 35 15 82 34 15 83 38 15 84 41 15 85 40 15 86 38 15 87 40 15 88 39 15 89 43 15 90 42 15 91 47 15 92 43 15 93 47 15 94 46 15 95 45 15 96 44 15 97 43 15 98 45 15 99 43 15 100 46 15 101 49 15 102 48 15 103 57 15 104 57 15 105 48 15 106 59 15 107 57 15 108 59 15 109 58 15 110 49 15 111 57 15 112 56 15 113 49 15 114 56 15 115 53 15 116 53 15 117 56 15 118 55 15 119 53 15 120 55 15 121 54 15 122 49 15 123 53 15 124 52 15 125 49 15 126 52 15 127 51 15 128 49 15 129 51 15 130 50 15 131 0 16 132 31 16 133 1 16 134 7 17 135 30 17 136 0 17 137 6 18 138 37 18 139 7 18 140 1 19 141 32 19 142 2 19 143 2 16 144 33 16 145 3 16 146 5 19 147 36 19 148 6 19 149 3 19 150 34 19 151 4 19 152 4 18 153 35 18 154 5 18 155 8 16 156 41 16 157 38 16 158 10 17 159 41 17 160 11 17 161 8 19 162 39 19 163 9 19 164 10 18 165 39 18 166 40 18 167 12 16 168 43 16 169 13 16 170 17 17 171 42 17 172 12 17 173 16 18 174 47 18 175 17 18 176 14 16 177 45 16 178 15 16 179 13 17 180 44 17 181 14 17 182 16 19 183 45 19 184 46 19 185 18 16 186 49 16 187 19 16 188 29 17 189 48 17 190 18 17 191 27 19 192 58 19 193 28 19 194 29 18 195 58 18 196 59 18 197 26 18 198 57 18 199 27 18 200 25 17 201 56 17 202 26 17 203 23 19 204 54 19 205 24 19 206 25 18 207 54 18 208 55 18 209 22 18 210 53 18 211 23 18 212 21 17 213 52 17 214 22 17 215 19 19 216 50 19 217 20 19 218 21 18 219 50 18 220 51 18 221 0 16 222 30 16 223 31 16 224 7 17 225 37 17 226 30 17 227 6 18 228 36 18 229 37 18 230 1 19 231 31 19 232 32 19 233 2 16 234 32 16 235 33 16 236 5 19 237 35 19 238 36 19 239 3 19 240 33 19 241 34 19 242 4 18 243 34 18 244 35 18 245 8 16 246 11 16 247 41 16 248 10 17 249 40 17 250 41 17 251 8 19 252 38 19 253 39 19 254 10 18 255 9 18 256 39 18 257 12 16 258 42 16 259 43 16 260 17 17 261 47 17 262 42 17 263 16 18 264 46 18 265 47 18 266 14 16 267 44 16 268 45 16 269 13 17 270 43 17 271 44 17 272 16 19 273 15 19 274 45 19 275 18 16 276 48 16 277 49 16 278 29 17 279 59 17 280 48 17 281 27 19 282 57 19 283 58 19 284 29 18 285 28 18 286 58 18 287 26 18 288 56 18 289 57 18 290 25 17 291 55 17 292 56 17 293 23 19 294 53 19 295 54 19 296 25 18 297 24 18 298 54 18 299 22 18 300 52 18 301 53 18 302 21 17 303 51 17 304 52 17 305 19 19 306 49 19 307 50 19 308 21 18 309 20 18 310 50 18 311</p>
        </triangles>
      </mesh>
    </geometry>
  </library_geometries>
  <library_visual_scenes>
    <visual_scene id="Scene" name="Scene">
      <node id="EDIT" name="EDIT" type="NODE">
        <matrix sid="transform">1 0 0 0 0 1 0 0 0 0 1 0 0 0 0 1</matrix>
        <instance_geometry url="#Text_001-mesh" name="EDIT"/>
      </node>
    </visual_scene>
  </library_visual_scenes>
  <scene>
    <instance_visual_scene url="#Scene"/>
  </scene>
</COLLADA>