[gd_scene load_steps=9 format=2]

[ext_resource path="res://scripts/button.gd" type="Script" id=1]
[ext_resource path="res://materials/stripes.material" type="Material" id=2]
[ext_resource path="res://models/cylinder.mesh" type="ArrayMesh" id=3]
[ext_resource path="res://models/decoy_ball.tscn" type="PackedScene" id=4]
[ext_resource path="res://materials/circles.material" type="Material" id=5]

[sub_resource type="PhysicsMaterial" id=1]

[sub_resource type="CylinderShape" id=2]
height = 1.0

[sub_resource type="SphereShape" id=3]

[node name="button" type="StaticBody"]
collision_layer = 32768
collision_mask = 32768
physics_material_override = SubResource( 1 )
script = ExtResource( 1 )

[node name="pastille_coll" type="CollisionShape" parent="."]
transform = Transform( 0.75, 0, 0, 0, 0.1, 0, 0, 0, 0.75, 0, 0, 0 )
shape = SubResource( 2 )

[node name="pastille_mesh" type="MeshInstance" parent="."]
transform = Transform( 0.75, 0, 0, 0, 0.1, 0, 0, 0, 0.75, 0, 0, 0 )
material_override = ExtResource( 2 )
mesh = ExtResource( 3 )
material/0 = null

[node name="decoy_coll" type="CollisionShape" parent="."]
transform = Transform( 1, 0, 0, 0, 1, 0, 0, 0, 1, 0, 1.5, 0 )
shape = SubResource( 3 )
disabled = true

[node name="decoy_mesh" parent="." instance=ExtResource( 4 )]
transform = Transform( 0.837386, 0.546612, -1.17545e-06, -0.433969, 0.664819, -0.608019, -0.33235, 0.509147, 0.793923, 0, 1.5, 0 )
visible = false

[node name="mesh2" type="MeshInstance" parent="."]
visible = false
material_override = ExtResource( 5 )
mesh = ExtResource( 3 )
material/0 = null
